{
    "IotCore_Endpoint": "a12duocis4j9vq-ats.iot.ap-northeast-1.amazonaws.com",
    "IotCore_Client_id": "FPT_DeviceTest01",
    "IotCore_Message": "{\"BucketName\":\"nsr-fpt-test\",\"FilePath\":\"%s\"}",
    "IotCore_SubscribeTopic": "api/upload-url/FPT_DeviceTest01/res",
    "IotCore_PublishTopic": "api/upload-url/FPT_DeviceTest01/req",
    "Keystore_Alias": "iot-core",
    "Keystore_FileName": "keystore.bks",
    "Keystore_Password": "password"
  }
